…
```
## `summarise()` ungrouping output (override with `.groups` argument)
```

```r
steps_by_day
```

```
## # A tibble: 53 x 2
##    date       total
##    <fct>      <int>
##  1 2012-10-02   126
##  2 2012-10-03 11352
##  3 2012-10-04 12116
##  4 2012-10-05 13294
##  5 2012-10-06 15420
##  6 2012-10-07 11015
##  7 2012-10-09 12811
##  8 2012-10-10  9900
##  9 2012-10-11 10304
## 10 2012-10-12 17382
## # ... with 43 more rows
```
…
```r
by_interval <- group_by(data, interval)
steps_by_interval <- summarise(by_interval, mean = mean(steps, na.rm=TRUE))
```

```
## `summarise()` ungrouping output (override with `.groups` argument)
```

```r
steps_by_interval
```

```
## # A tibble: 288 x 2
##    interval   mean
##       <int>  <dbl>
##  1        0 1.72  
##  2        5 0.340 
##  3       10 0.132 
##  4       15 0.151 
##  5       20 0.0755
##  6       25 2.09  
##  7       30 0.528 
##  8       35 0.868 
##  9       40 0     
## 10       45 1.47  
## # ... with 278 more rows
```
…
data2$steps <- as.integer(data2$steps)
by_day2 <- group_by(data2, date)
steps_by_day2 <- summarise(by_day2, total = sum(steps))
```

```
## `summarise()` ungrouping output (override with `.groups` argument)
```

```r
steps_by_day2
```

```
## # A tibble: 61 x 2
##    date       total
##    <fct>      <int>
##  1 2012-10-01 10641
##  2 2012-10-02   126
##  3 2012-10-03 11352
##  4 2012-10-04 12116
##  5 2012-10-05 13294
##  6 2012-10-06 15420
##  7 2012-10-07 11015
##  8 2012-10-08 10641
##  9 2012-10-09 12811
## 10 2012-10-10  9900
## # ... with 51 more rows
```
…
by_type_of_day <- group_by(data2, interval, day)
steps_by_type_of_day <- summarise(by_type_of_day, mean = mean(steps, na.rm=TRUE))
```

```
## `summarise()` regrouping output by 'interval' (override with `.groups` argument)
```

```r
steps_by_type_of_day
```

```
## # A tibble: 576 x 3
## # Groups:   interval [288]
##    interval day       mean
##       <int> <fct>    <dbl>
##  1        0 weekday 2.16  
##  2        0 weekend 0.125 
##  3        5 weekday 0.4   
##  4        5 weekend 0     
##  5       10 weekday 0.156 
##  6       10 weekend 0     
##  7       15 weekday 0.178 
##  8       15 weekend 0     
##  9       20 weekday 0.0889
## 10       20 weekend 0     
## # ... with 566 more rows
```
…
